{
    "day0": {
        "tdyntextaula": [
            {
                "F1": "5a",
                "F2": "1.",
                "F3": "Mustermann \/ M",
                "F4": "Maier",
                "F5": "D",
                "F6": "127",
                "F7": "Vergesst die Deutsch-Bücher nicht!"
            }
        ],
        "tdyntextlehrer": [
            {
                "F1": "Maier",
                "F2": "1.",
                "F3": "5a",
                "F4": "D",
                "F5": "127",
                "F6": "Mustermann",
                "F7": ""
            }
        ],
        "tstattextaula": [
            {
                "Datumlang": "Dienstag, 11.01.2022",
                "Druckdatum": "vom 11.01.22 um 9:23",
                "Version": "Version 3",
                "BitteBeachten": "Wegen der Gesamtlehrerkonferenz entfällt heute bei allen Klassen der Nachmittagsunterricht.",
                "H1": "Klasse",
                "H2": "Std.",
                "H3": "Lehrer\/Fach",
                "H4": "vertr. durch",
                "H5": "Fach",
                "H6": "Raum",
                "H7": "Bemerkung"
            }
        ],
        "tstattextlehrer": [
            {
                "Datumlang": "Dienstag, 11.01.2022",
                "Druckdatum": "vom 11.01.22 um 9:23",
                "Version": "Version 3",
                "BitteBeachten": "Wegen der Gesamtlehrerkonferenz entfällt heute bei allen Klassen der Nachmittagsunterricht.",
                "AbwKlassen": "",
                "AbwKurse": "",
                "AbwLehrer": "keine",
                "FehlR\u00e4ume": "301, 302",
                "H1": "Lehrer",
                "H2": "Std.",
                "H3": "Klasse",
                "H4": "Fach",
                "H5": "Raum",
                "H6": "f\u00fcr",
                "H7": "Bemerkung"
            }
        ]
    },
    "day1": {
        "tdyntextaula": [
            {
                "F1": "5c",
                "F2": "6.",
                "F3": "Mustermann \/ M",
                "F4": "entfällt",
                "F5": ".",
                "F6": ".",
                "F7": "**"
            },
            {
                "F1": "7d",
                "F2": "7.",
                "F3": "Mustermann \/ S",
                "F4": ".",
                "F5": ".",
                "F6": "089",
                "F7": "Raumänderung"
            },
            {
                "F1": "7d",
                "F2": "8.",
                "F3": "Maier \/ Ek",
                "F4": "Schmidt",
                "F5": "E",
                "F6": "061",
                "F7": "Zusatzstunde"
            },
            {
                "F1": "10a",
                "F2": "2.",
                "F3": "Meyer \/ Bk",
                "F4": "Schmit",
                "F5": "Vertretung",
                "F6": "042",
                "F7": "."
            }
        ],
        "tdyntextlehrer": [
            {
                "F1": "Mustermann",
                "F2": "7.",
                "F3": "7d",
                "F4": "S",
                "F5": "089",
                "F6": ".",
                "F7": "Raumänderung"
            },
            {
                "F1": "Schmidt",
                "F2": "8.",
                "F3": "7d",
                "F4": "E",
                "F5": "061",
                "F6": "Mai",
                "F7": "Zusatzstunde"
            },
            {
                "F1": "Schmit",
                "F2": "2.",
                "F3": "10a",
                "F4": "Schmit",
                "F5": "Vertretung",
                "F6": "Mey",
                "F7": "."
            }
        ],
        "tstattextaula": [
            {
                "Datumlang": "Mittwoch, 12.01.2022",
                "Druckdatum": "vom 11.01.22 um 9:23",
                "Version": "Version 3",
                "BitteBeachten": "",
                "H1": "Klasse",
                "H2": "Std.",
                "H3": "Lehrer\/Fach",
                "H4": "vertr. durch",
                "H5": "Fach",
                "H6": "Raum",
                "H7": "Bemerkung"
            }
        ],
        "tstattextlehrer": [
            {
                "Datumlang": "Mittwoch, 12.01.2022",
                "Druckdatum": "vom 11.01.22 um 9:23",
                "Version": "Version 3",
                "AbwKlassen": "5c, 9d",
                "AbwKurse": "",
                "AbwLehrer": "",
                "FehlR\u00e4ume": "205",
                "BitteBeachten": "",
                "H1": "Lehrer",
                "H2": "Std.",
                "H3": "Klasse",
                "H4": "Fach",
                "H5": "Raum",
                "H6": "f\u00fcr",
                "H7": "Bemerkung"
            }
        ]
    },
    "day2": {
        "tdyntextaula": [],
        "tdyntextlehrer": [],
        "tstattextaula": [
            {
                "Datumlang": "Donnerstag, 13.01.2022",
                "Druckdatum": "vom 11.01.22 um 10:17",
                "Version": "Version 1",
                "BitteBeachten": "Alle Schüler müssen bis heute Formular NC420 auf dem Sekretariat abgeben.",
                "H1": "Klasse",
                "H2": "Std.",
                "H3": "Lehrer\/Fach",
                "H4": "vertr. durch",
                "H5": "Fach",
                "H6": "Raum",
                "H7": "Bemerkung"
            }
        ],
        "tstattextlehrer": [
            {
                "Datumlang": "Donnerstag, 13.01.2022",
                "Druckdatum": "vom 11.01.22 um 10:17",
                "Version": "Version 1",
                "BitteBeachten": "Alle Schüler müssen bis heute Formular NC420 auf dem Sekretariat abgeben.",
                "AbwKlassen": "",
                "AbwKurse": "",
                "AbwLehrer": "",
                "FehlR\u00e4ume": "",
                "H1": "Lehrer",
                "H2": "Std.",
                "H3": "Klasse",
                "H4": "Fach",
                "H5": "Raum",
                "H6": "f\u00fcr",
                "H7": "Bemerkung"
            }
        ]
    }
}